<?xml version="1.0" encoding="UTF-8"?>
<svg width="72px" height="88px" viewBox="0 0 72 88" version="1.1" xmlns="http://www.w3.org/2000/svg" xmlns:xlink="http://www.w3.org/1999/xlink">
    <!-- Generator: Sketch 47.1 (45422) - http://www.bohemiancoding.com/sketch -->
    <title>icon_result</title>
    <desc>Created with Sketch.</desc>
    <defs></defs>
    <g id="Page-1" stroke="none" stroke-width="1" fill="none" fill-rule="evenodd">
        <g id="Assets" transform="translate(-40.000000, -1471.000000)">
            <g id="icon_result" transform="translate(40.000000, 1471.000000)">
                <rect id="Rectangle-29-Copy" opacity="0.36497962" x="0" y="0" width="72" height="88"></rect>
                <path d="M38.5259633,63.9367772 C37.7552638,63.1455149 36.4890435,63.1288455 35.6977812,63.899545 C34.9065189,64.6702445 34.8898495,65.9364648 35.6605491,66.7277271 L41.0287821,72.2391881 C41.7667651,72.996861 42.9670873,73.0489473 43.7679291,72.3580497 L57.1166965,60.8418762 C57.9530415,60.1203494 58.04612,58.8574448 57.3245932,58.0210999 C56.6030664,57.1847549 55.3401618,57.0916764 54.5038169,57.8132032 L42.5805679,68.0995614 L38.5259633,63.9367772 Z" id="Path-5" fill="#F78629" fill-rule="nonzero"></path>
                <path d="M72,18.094838 C72,11.4105117 66.5609396,5.99179457 59.8515186,5.99179457 L44.9493813,5.99179457 C43.4678643,2.36871755 39.9319343,0 36.0050619,0 C32.0781895,0 28.5422594,2.36871755 27.0607424,5.99179457 L12.1484814,5.99179457 C5.43906041,5.99179457 0,11.4105117 0,18.094838 L0,75.8969565 C0,82.5812829 5.43906041,88 12.1484814,88 L59.8515186,88 C66.5609396,88 72,82.5812829 72,75.8969565 L72,18.094838 Z M30.1788526,10.0261424 L30.5230596,8.432575 C31.0809102,5.86083092 33.3640737,4.02525472 36.0050619,4.02525472 C38.64605,4.02525472 40.9292135,5.86083092 41.4870641,8.432575 L41.8312711,10.0261424 L47.9055118,10.0261424 L47.9055118,15.6238 C47.9055118,16.7378544 46.9990017,17.6409739 45.8807649,17.6409739 L26.1293588,17.6409739 C25.011122,17.6409739 24.1046119,16.7378544 24.1046119,15.6238 L24.1046119,10.0261424 L30.1788526,10.0261424 Z M67.9505062,75.8969565 C67.9505062,80.3531741 64.3244659,83.9656522 59.8515186,83.9656522 L12.1484814,83.9656522 C7.67553408,83.9656522 4.04949381,80.3531741 4.04949381,75.8969565 L4.04949381,18.094838 C4.04949381,13.6386205 7.67553408,10.0261424 12.1484814,10.0261424 L20.0551181,10.0261424 L20.0551181,15.6238 C20.0551181,18.9659632 22.7746483,21.6753217 26.1293588,21.6753217 L45.8706412,21.6753217 C49.2253517,21.6753217 51.9448819,18.9659632 51.9448819,15.6238 L51.9448819,10.0261424 L59.8515186,10.0261424 C64.3244659,10.0261424 67.9505062,13.6386205 67.9505062,18.094838 L67.9505062,75.8969565 Z" id="Shape" fill="#F78629" fill-rule="nonzero"></path>
                <path d="M26.66,33 L15,33 C13.8954305,33 13,33.8954305 13,35 L13,46.66 C13,47.7645695 13.8954305,48.66 15,48.66 L26.66,48.66 C27.7645695,48.66 28.66,47.7645695 28.66,46.66 L28.66,35 C28.66,33.8954305 27.7645695,33 26.66,33 Z M24.66,44.66 L17,44.66 L17,37 L24.66,37 L24.66,44.66 Z" id="Shape" fill="#F78629" fill-rule="nonzero"></path>
                <path d="M56.27,39 L36,39 C34.8954305,39 34,39.8954305 34,41 C34,42.1045695 34.8954305,43 36,43 L56.27,43 C57.3745695,43 58.27,42.1045695 58.27,41 C58.27,39.8954305 57.3745695,39 56.27,39 Z" id="Shape" fill="#F78629" fill-rule="nonzero"></path>
                <path d="M26.66,57 L15,57 C13.8954305,57 13,57.8954305 13,59 L13,70.66 C13,71.7645695 13.8954305,72.66 15,72.66 L26.66,72.66 C27.7645695,72.66 28.66,71.7645695 28.66,70.66 L28.66,59 C28.66,57.8954305 27.7645695,57 26.66,57 Z M24.66,68.66 L17,68.66 L17,61 L24.66,61 L24.66,68.66 Z" id="Shape" fill="#F78629" fill-rule="nonzero"></path>
            </g>
        </g>
    </g>
</svg>