<?xml version="1.0" encoding="UTF-8"?>
<svg width="146px" height="45px" viewBox="0 0 146 45" version="1.1" xmlns="http://www.w3.org/2000/svg" xmlns:xlink="http://www.w3.org/1999/xlink">
    <!-- Generator: Sketch 47.1 (45422) - http://www.bohemiancoding.com/sketch -->
    <title>Logo</title>
    <desc>Created with Sketch.</desc>
    <defs></defs>
    <g id="Page-1" stroke="none" stroke-width="1" fill="none" fill-rule="evenodd">
        <g id="Assets" transform="translate(-30.000000, -20.000000)">
            <g id="Logo" transform="translate(30.000000, 20.000000)">
                <path d="M145.616492,40.3739469 L140.138854,40.3739469 L140.138854,31.8015354 L145.616492,31.8015354 L145.616492,32.9697366 L141.438831,32.9697366 L141.438831,35.4725446 L145.002474,35.4725446 L145.002474,36.6289797 L141.438831,36.6289797 L141.438831,39.2057457 L145.616492,39.2057457 L145.616492,40.3722661 L145.616492,40.3739469 Z M136.936594,34.3177903 C136.936594,33.9009358 136.804422,33.5714862 136.538403,33.3294417 C136.274058,33.089078 135.92104,32.9697366 135.479348,32.9697366 L133.553643,32.9697366 L133.553643,35.654078 L135.479348,35.654078 C135.92104,35.654078 136.274058,35.5364174 136.538403,35.2994155 C136.802748,35.0624135 136.936594,34.7363257 136.936594,34.3177903 Z M138.500917,40.3739469 L136.985113,40.3739469 L135.178196,36.761768 L133.553643,36.761768 L133.553643,40.3739469 L132.253666,40.3739469 L132.253666,31.8015354 L135.576387,31.8015354 C136.377788,31.8015354 137.021921,32.0351756 137.508785,32.5007752 C137.993976,32.964694 138.236571,33.5681245 138.236571,34.3060242 C138.236571,34.8926461 138.077629,35.3834587 137.759746,35.7818237 C137.443535,36.1785079 137.031959,36.4457654 136.526692,36.5819155 L138.500917,40.3756278 L138.500917,40.3739469 Z M128.701734,37.5450511 L127.401757,33.7412536 L126.066645,37.5450511 L128.701734,37.5450511 Z M131.037342,40.3739469 L129.653712,40.3739469 L129.063117,38.6510603 L125.680166,38.6510603 L125.089571,40.3739469 L123.704268,40.3739469 L126.846297,31.8015354 L127.895313,31.8015354 L131.037342,40.3739469 Z M121.852177,34.4018336 C121.852177,33.9530426 121.713312,33.6017418 121.437255,33.3496121 C121.159525,33.0958014 120.791449,32.9697366 120.334701,32.9697366 L118.455841,32.9697366 L118.455841,35.8238453 L120.334701,35.8238453 C120.791449,35.8238453 121.159525,35.6977805 121.437255,35.4439699 C121.713312,35.1918401 121.852177,34.843901 121.852177,34.4035144 L121.852177,34.4018336 Z M123.152154,34.4018336 C123.152154,35.1565419 122.901193,35.778462 122.399272,36.2692746 C121.89735,36.7584063 121.234813,37.0038126 120.408316,37.0038126 L118.457514,37.0038126 L118.457514,40.3756278 L117.157537,40.3756278 L117.157537,31.8032163 L120.408316,31.8032163 C121.234813,31.8032163 121.89735,32.0469417 122.399272,32.5377543 C122.901193,33.026886 123.152154,33.648806 123.152154,34.4035144 L123.152154,34.4018336 Z M114.929005,40.3739469 L113.629028,40.3739469 L113.629028,34.6421972 L111.654803,38.8208277 L110.691114,38.8208277 L108.670043,34.6421972 L108.670043,40.3739469 L107.368393,40.3739469 L107.368393,31.8015354 L108.670043,31.8015354 L111.174631,37.1349201 L113.630701,31.8015354 L114.930678,31.8015354 L114.930678,40.3739469 L114.929005,40.3739469 Z M104.14271,36.0877412 C104.14271,35.3565649 104.130998,34.8926461 104.107575,34.6909423 C104.050691,34.1211291 103.893422,33.7009128 103.637442,33.4269318 C103.307847,33.0739502 102.882886,32.8974594 102.360888,32.8974594 C101.83889,32.8974594 101.413929,33.0739502 101.084334,33.4269318 C100.828354,33.699232 100.671085,34.1211291 100.614201,34.6909423 C100.590778,34.8926461 100.579066,35.3565649 100.579066,36.0877412 C100.579066,36.8189174 100.590778,37.284517 100.614201,37.48454 C100.671085,38.0543532 100.828354,38.4745695 101.084334,38.7485505 C101.413929,39.1015321 101.83889,39.2780229 102.360888,39.2780229 C102.882886,39.2780229 103.307847,39.1015321 103.637442,38.7485505 C103.893422,38.4762503 104.050691,38.0543532 104.107575,37.48454 C104.130998,37.284517 104.14271,36.8189174 104.14271,36.0877412 L104.14271,36.0877412 Z M105.44436,36.0877412 C105.44436,37.0912176 105.412571,37.7652444 105.347322,38.1098218 C105.251956,38.6729115 105.011034,39.1452346 104.624554,39.5318336 C104.015556,40.1419875 103.261001,40.4462241 102.360888,40.4462241 C101.470814,40.4462241 100.719604,40.1419875 100.110606,39.5318336 C99.7257996,39.1452346 99.479858,38.6729115 99.3761275,38.1098218 C99.3125508,37.7568401 99.2807624,37.0828132 99.2807624,36.0877412 C99.2807624,35.0926691 99.3125508,34.4186422 99.3761275,34.0656606 C99.4815311,33.5025708 99.7257996,33.0302477 100.110606,32.6436488 C100.719604,32.0351756 101.470814,31.7292582 102.360888,31.7292582 C103.261001,31.7292582 104.013883,32.0351756 104.624554,32.6436488 C105.011034,33.0302477 105.250283,33.5025708 105.347322,34.0656606 C105.412571,34.4102379 105.44436,35.0842647 105.44436,36.0877412 L105.44436,36.0877412 Z M97.8586512,37.8106278 C97.714767,38.6443368 97.3667681,39.2931507 96.8180004,39.7537077 C96.2692328,40.2159456 95.5949848,40.4462241 94.8019487,40.4462241 C93.9102013,40.4462241 93.1589919,40.1419875 92.5499937,39.5318336 C92.1651872,39.1452346 91.9192456,38.6729115 91.8155151,38.1098218 C91.7519384,37.7568401 91.72015,37.0828132 91.72015,36.0877412 C91.72015,35.0926691 91.7519384,34.4186422 91.8155151,34.0656606 C91.9209187,33.5025708 92.1651872,33.0302477 92.5499937,32.6436488 C93.1589919,32.0351756 93.9102013,31.7292582 94.8019487,31.7292582 C95.6033502,31.7292582 96.2775982,31.9578558 96.8230197,32.416732 C97.3684411,32.8739273 97.714767,33.524422 97.8586512,34.3665354 L96.5335782,34.3665354 C96.3010212,33.3865911 95.7238113,32.8974594 94.8002756,32.8974594 C94.2782771,32.8974594 93.858336,33.0705885 93.5354331,33.4151658 C93.2794531,33.6975511 93.1188382,34.12281 93.0552615,34.6926232 C93.0318385,34.8926461 93.0184539,35.3582457 93.0184539,36.089422 C93.0184539,36.8189174 93.0318385,37.284517 93.0552615,37.48454 C93.1188382,38.0543532 93.2794531,38.4812929 93.5354331,38.7619974 C93.856663,39.1065747 94.2782771,39.2797038 94.8002756,39.2797038 C95.7321767,39.2797038 96.3127327,38.7905721 96.5452897,37.8106278 L97.8569782,37.8106278 L97.8586512,37.8106278 Z M127.835082,26.3286389 L122.357445,26.3286389 L122.357445,17.7562274 L127.835082,17.7562274 L127.835082,18.9227477 L123.657422,18.9227477 L123.657422,21.4272366 L127.221065,21.4272366 L127.221065,22.5836717 L123.657422,22.5836717 L123.657422,25.1604377 L127.835082,25.1604377 L127.835082,26.3269581 L127.835082,26.3286389 Z M119.155185,20.2724823 C119.155185,19.8539469 119.023012,19.5261782 118.756994,19.2841337 C118.492648,19.04377 118.13963,18.9227477 117.697939,18.9227477 L115.772233,18.9227477 L115.772233,21.60877 L117.697939,21.60877 C118.13963,21.60877 118.492648,21.4911094 118.756994,21.2541075 C119.021339,21.0171055 119.155185,20.6910177 119.155185,20.2724823 Z M120.719507,26.3286389 L119.203704,26.3286389 L117.396786,22.71646 L115.772233,22.71646 L115.772233,26.3286389 L114.472256,26.3286389 L114.472256,17.7562274 L117.794977,17.7562274 C118.596379,17.7562274 119.240512,17.9881868 119.727375,18.4537864 C120.212566,18.919386 120.455162,19.5228165 120.455162,20.2607163 C120.455162,20.8456573 120.29622,21.3381507 119.978336,21.7348349 C119.662126,22.1331999 119.25055,22.4004574 118.745282,22.5366075 L120.719507,26.3286389 Z M111.2449,22.0424332 C111.2449,21.3112569 111.233189,20.8456573 111.209766,20.6456343 C111.152881,20.0758211 110.995613,19.6556048 110.739633,19.3816239 C110.410037,19.0286422 109.985077,18.8521514 109.463079,18.8521514 C108.94108,18.8521514 108.51612,19.0286422 108.186525,19.3816239 C107.930545,19.653924 107.773276,20.0741402 107.716392,20.6456343 C107.692969,20.8456573 107.681257,21.3112569 107.681257,22.0424332 C107.681257,22.7719286 107.692969,23.2375282 107.716392,23.439232 C107.773276,24.0090452 107.930545,24.4292615 108.186525,24.7032425 C108.51612,25.0562241 108.94108,25.2327149 109.463079,25.2327149 C109.985077,25.2327149 110.410037,25.0562241 110.739633,24.7032425 C110.995613,24.4309423 111.152881,24.0090452 111.209766,23.439232 C111.233189,23.2375282 111.2449,22.7719286 111.2449,22.0424332 L111.2449,22.0424332 Z M112.54655,22.0424332 C112.54655,23.0459096 112.514762,23.7199364 112.449512,24.0645138 C112.354147,24.6276035 112.113225,25.0999266 111.728418,25.4865256 C111.117747,26.0949987 110.363191,26.4009161 109.464752,26.4009161 C108.573004,26.4009161 107.823468,26.0949987 107.212797,25.4865256 C106.82799,25.0999266 106.582049,24.6276035 106.478318,24.0645138 C106.414741,23.7115321 106.382953,23.0375052 106.382953,22.0424332 C106.382953,21.0473611 106.414741,20.3733342 106.478318,20.0203526 C106.583722,19.4572628 106.82799,18.9849397 107.212797,18.5983408 C107.823468,17.9881868 108.573004,17.6839502 109.464752,17.6839502 C110.363191,17.6839502 111.117747,17.9881868 111.728418,18.5983408 C112.113225,18.9849397 112.354147,19.4572628 112.449512,20.0203526 C112.514762,20.3649299 112.54655,21.0389567 112.54655,22.0424332 L112.54655,22.0424332 Z M104.962515,23.7636389 C104.816958,24.5990288 104.470632,25.2461619 103.920191,25.7083997 C103.371424,26.1689567 102.698849,26.3992353 101.904139,26.3992353 C101.012392,26.3992353 100.262856,26.0949987 99.6521844,25.4848447 C99.2673779,25.0999266 99.0214363,24.6259227 98.9177058,24.0645138 C98.8541291,23.7115321 98.8223407,23.0375052 98.8223407,22.0407523 C98.8223407,21.0456802 98.8541291,20.3716533 98.9177058,20.0186717 C99.0231093,19.4572628 99.2673779,18.9832588 99.6521844,18.5983408 C100.262856,17.9881868 101.012392,17.6822693 101.904139,17.6822693 C102.705541,17.6822693 103.381462,17.910867 103.92521,18.3697431 C104.472305,18.8269384 104.816958,19.4774332 104.960842,20.3195465 L103.635769,20.3195465 C103.403212,19.3412831 102.826002,18.8521514 101.902466,18.8521514 C101.380468,18.8521514 100.960527,19.0235996 100.639297,19.3698578 C100.381644,19.6505623 100.221029,20.0758211 100.157452,20.6456343 C100.134029,20.8456573 100.120645,21.3112569 100.120645,22.0424332 C100.120645,22.7719286 100.134029,23.2375282 100.157452,23.439232 C100.221029,24.0090452 100.381644,24.4343041 100.639297,24.7150085 C100.960527,25.0595858 101.380468,25.2327149 101.902466,25.2327149 C102.834367,25.2327149 103.414923,24.7435832 103.64748,23.7636389 L104.959169,23.7636389 L104.962515,23.7636389 Z M97.3901911,23.8846612 C97.3901911,24.6629017 97.1040957,25.2764174 96.5352513,25.7268893 C95.9647337,26.1756802 95.2235628,26.4009161 94.3083924,26.4009161 C93.0318385,26.4009161 92.0196299,26.0227215 91.2734398,25.269694 L92.1400911,24.4141337 C92.6855126,24.9587339 93.416645,25.2327149 94.3301424,25.2327149 C94.8922945,25.2327149 95.3272933,25.1184161 95.6368116,24.8898185 C95.9446568,24.65954 96.1002525,24.3368139 96.1002525,23.9199594 C96.1002525,23.5350413 95.9864836,23.2375282 95.762292,23.0291009 C95.5698887,22.8526101 95.2570242,22.7315878 94.8236986,22.6677149 L93.81149,22.5231606 C93.1054536,22.4189469 92.5633783,22.1903493 92.1869371,21.8356868 C91.7703422,21.4423644 91.5612082,20.8977641 91.5612082,20.1985242 C91.5612082,19.4438159 91.8171882,18.8370236 92.3308213,18.3747857 C92.8461275,17.9125478 93.5437985,17.6822693 94.4271805,17.6822693 C95.5029658,17.6822693 96.389694,18.0083571 97.087365,18.657171 L96.2558482,19.4757523 C95.7907342,19.0353657 95.1683514,18.8134915 94.3903729,18.8134915 C93.9001628,18.8134915 93.5170294,18.9378755 93.2409725,19.1883244 C92.9632425,19.4370924 92.8243775,19.7581376 92.8243775,20.15146 C92.8243775,20.487633 92.9348003,20.7548906 93.1556458,20.9515518 C93.3764913,21.148213 93.6960481,21.2793204 94.112643,21.3431933 L95.088044,21.4877477 C95.7940804,21.5919613 96.3277903,21.8037503 96.6891739,22.1264764 C97.1542879,22.5349266 97.388518,23.1215485 97.388518,23.8846612 L97.3901911,23.8846612 Z M136.044847,7.9954443 C136.044847,7.26594889 136.033135,6.80034928 136.009712,6.59864548 C135.952828,6.02883224 135.795559,5.60861599 135.539579,5.33463499 C135.209984,4.98165334 134.785024,4.80516252 134.263025,4.80516252 C133.741027,4.80516252 133.316066,4.98165334 132.986471,5.33463499 C132.730491,5.60693512 132.573222,6.02883224 132.516338,6.59864548 C132.492915,6.80034928 132.47953,7.26594889 132.47953,7.9954443 C132.47953,8.72662058 132.492915,9.19222018 132.516338,9.39224312 C132.573222,9.96205636 132.730491,10.3839535 132.986471,10.6579345 C133.316066,11.0109161 133.741027,11.1874069 134.263025,11.1874069 C134.785024,11.1874069 135.209984,11.0109161 135.539579,10.6579345 C135.795559,10.3839535 135.952828,9.96373722 136.009712,9.39224312 C136.033135,9.19222018 136.044847,8.72662058 136.044847,7.9954443 L136.044847,7.9954443 Z M137.346497,7.9954443 C137.346497,8.99892071 137.313035,9.67294758 137.249459,10.0192058 C137.154094,10.5806147 136.913171,11.0546186 136.526692,11.4395367 C135.917693,12.0496907 135.163138,12.3539273 134.263025,12.3539273 C133.372951,12.3539273 132.621741,12.0496907 132.012743,11.4395367 C131.627937,11.0546186 131.381995,10.5806147 131.278265,10.0192058 C131.214688,9.66622412 131.1829,8.99051638 131.1829,7.9954443 C131.1829,7.00037221 131.214688,6.32634535 131.278265,5.9733637 C131.383668,5.41195478 131.627937,4.93795085 132.012743,4.55303277 C132.621741,3.94287877 133.372951,3.63696134 134.263025,3.63696134 C135.163138,3.63696134 135.91602,3.94287877 136.526692,4.55303277 C136.913171,4.93795085 137.152421,5.41195478 137.249459,5.9733637 C137.313035,6.31794102 137.346497,6.99196789 137.346497,7.9954443 L137.346497,7.9954443 Z M130.314575,3.70923853 L127.751429,8.75351442 L127.751429,12.2816501 L126.449779,12.2816501 L126.449779,8.75351442 L123.884959,3.70923853 L125.305398,3.70923853 L127.100604,7.47941874 L128.894137,3.70923853 L130.314575,3.70923853 Z M121.743427,6.22549345 C121.743427,5.80863893 121.611255,5.47918938 121.345236,5.23882569 C121.080891,4.99846199 120.727873,4.87743971 120.286182,4.87743971 L118.360476,4.87743971 L118.360476,7.56178113 L120.286182,7.56178113 C120.727873,7.56178113 121.080891,7.44412058 121.345236,7.20711861 C121.611255,6.97011664 121.743427,6.64402883 121.743427,6.22717431 L121.743427,6.22549345 Z M123.309423,12.2816501 L121.791946,12.2816501 L119.986702,8.66947117 L118.360476,8.66947117 L118.360476,12.2816501 L117.060499,12.2816501 L117.060499,3.70923853 L120.38322,3.70923853 C121.184621,3.70923853 121.830427,3.9411979 122.315618,4.40679751 C122.800809,4.87239712 123.043404,5.47414679 123.043404,6.21372739 C123.043404,6.79866841 122.884462,7.29116186 122.568252,7.687846 C122.250368,8.08621101 121.838792,8.35346855 121.333525,8.48961861 L123.30775,12.2816501 L123.309423,12.2816501 Z M113.702643,6.10447117 C113.702643,5.71114875 113.57549,5.40859305 113.322856,5.19680406 C113.070222,4.98333421 112.730588,4.87743971 112.305628,4.87743971 L110.379922,4.87743971 L110.379922,7.33318349 L112.305628,7.33318349 C112.730588,7.33318349 113.070222,7.22728899 113.322856,7.01381913 C113.57549,6.80034928 113.702643,6.49779358 113.702643,6.10447117 L113.702643,6.10447117 Z M113.834816,9.80069332 C113.834816,9.41577523 113.709335,9.10313434 113.461721,8.86277064 C113.212433,8.62072608 112.86778,8.50138467 112.426089,8.50138467 L110.379922,8.50138467 L110.379922,11.1134489 L112.426089,11.1134489 C112.86778,11.1134489 113.212433,10.9924266 113.461721,10.7520629 C113.709335,10.5116992 113.834816,10.1940157 113.834816,9.80069332 Z M115.134793,9.86120446 C115.134793,10.6327215 114.897217,11.2277477 114.423737,11.6496448 C113.951931,12.0715419 113.324529,12.2816501 112.54655,12.2816501 L109.078272,12.2816501 L109.078272,3.70923853 L112.414378,3.70923853 C113.209087,3.70923853 113.838162,3.92102752 114.303276,4.34292464 C114.76839,4.76314089 115.00262,5.33631586 115.00262,6.05740695 C115.00262,6.49107012 114.882159,6.8810308 114.641237,7.22560813 C114.423737,7.53152556 114.159392,7.74835714 113.846527,7.87610288 C114.704813,8.22236107 115.134793,8.88294102 115.134793,9.86288532 L115.134793,9.86120446 Z M106.853086,12.2816501 L105.551436,12.2816501 L105.551436,6.54990039 L103.577211,10.7268499 L102.615195,10.7268499 L100.592451,6.54990039 L100.592451,12.2816501 L99.2924739,12.2816501 L99.2924739,3.70923853 L100.592451,3.70923853 L103.09704,9.0426232 L105.553109,3.70923853 L106.853086,3.70923853 L106.853086,12.2816501 Z M97.5106522,12.2816501 L92.0330145,12.2816501 L92.0330145,3.70923853 L97.5106522,3.70923853 L97.5106522,4.87575885 L93.3329914,4.87575885 L93.3329914,7.38024771 L96.8966348,7.38024771 L96.8966348,8.53668283 L93.3329914,8.53668283 L93.3329914,11.1134489 L97.5106522,11.1134489 L97.5106522,12.2799692 L97.5106522,12.2816501 Z" id="Fill-1" fill="#FFFFFF"></path>
                <path d="M69.5079441,24.6107949 C65.8974547,26.3941927 62.5295607,29.6937307 62.2551769,32.8453526 C61.9590431,35.9768041 66.0497042,37.5013486 70.9501321,35.0254345 C75.8421947,32.5478394 78.520783,27.7086291 77.545382,25.2982687 C76.5666349,22.8492484 73.1418565,22.8761422 69.5079441,24.6107949 L69.5079441,24.6107949 Z M49.0412541,29.8500511 C43.275848,30.6366959 36.5333678,33.2622071 34.0957018,37.1332392 C31.6413052,40.9538453 35.8741774,45.2249233 43.5468856,44.6601527 C51.2296323,44.0903394 57.6542288,38.7922529 58.2113618,34.7850708 C58.7818794,30.7274626 54.8116795,29.1474495 49.0412541,29.8500511 Z M25.9762834,26.0479345 C20.3246461,24.7889666 13.0200137,24.323367 9.55508157,26.3353624 C6.10520708,28.2885275 8.42408489,33.5815714 15.3137954,36.1969974 C22.2352944,38.8023381 29.9732524,36.5970433 32.1783613,33.3210374 C34.4085663,30.001329 31.5994784,27.3909456 25.9762834,26.0479345 L25.9762834,26.0479345 Z M59.8242032,0.113868283 C58.2565348,0.476935125 56.7256739,1.9527346 56.4178286,3.54451376 C56.0949257,5.13461206 57.6659404,6.18179096 59.8359148,5.61870118 C62.002543,5.04888794 63.3577313,3.31423526 63.069963,1.93256422 C62.7855407,0.53912713 61.398564,-0.239113368 59.8225302,0.113868283 L59.8242032,0.113868283 Z M51.6094197,1.53756094 C49.8008288,1.84347837 47.4384511,3.22683028 46.2321662,4.75641743 C45.0158429,6.2759194 46.1669164,7.5869941 48.8036779,7.3567156 C51.432074,7.1163519 53.7710287,5.35648624 54.1558353,3.76806881 C54.5490072,2.17124705 53.4247028,1.2467713 51.6094197,1.53588008 L51.6094197,1.53756094 Z M75.0156971,14.4331573 C73.4932016,16.7863683 73.1987409,19.6438388 74.7245826,21.1028296 C76.2403858,22.5651822 79.4192227,21.2372988 81.2211212,17.7343761 C83.0113083,14.2297726 82.5846749,10.9655328 80.8095455,10.6680197 C79.0109931,10.352017 76.5616157,12.0933932 75.0156971,14.4331573 L75.0156971,14.4331573 Z M67.9084872,5.67080799 C65.6766091,6.57175164 64.3682668,8.54508716 65.1730145,10.3335275 C65.9643775,12.1270105 69.2703678,12.5505885 72.2852436,10.863 C75.2984463,9.16700721 76.2102705,6.82556225 74.6325636,5.8388945 C73.0481644,4.82701376 70.1520768,4.78499214 67.9084872,5.67080799 Z M26.1787251,7.87946461 C22.4059477,6.96171232 16.4146768,6.01538532 12.8911872,6.13472674 C9.3861013,6.21372739 10.3865984,8.81738729 15.2000265,11.1302575 C20.0368777,13.4212765 26.0683023,13.2800839 28.5327374,11.8194122 C31.0021917,10.352017 29.9498294,8.84428113 26.1787251,7.87946461 Z M50.7009416,20.8154017 C48.08593,19.6303919 43.4732705,20.0724594 38.4256122,21.5230459 C33.4381845,22.9551429 29.9364448,25.4898873 32.6970136,27.9658014 C35.4073903,30.4803755 43.4465013,30.5022267 48.2549103,27.7187143 C53.0951076,24.9889895 53.2389918,21.9684751 50.7009416,20.8154017 Z M43.8530578,13.0985505 C42.0243901,11.3790256 37.5338648,11.360536 31.8303623,12.0530524 C26.1753789,12.7539731 21.4807389,14.3087733 23.3211181,17.2939895 C25.0945744,20.3178657 32.8927631,22.1500085 38.5226504,20.1060767 C44.1776338,18.1411455 45.6114565,14.7457982 43.8530578,13.0985505 L43.8530578,13.0985505 Z M67.3764503,15.4349528 C63.5869422,15.7391894 59.4511082,17.4839273 56.2756175,20.2287798 C53.1536651,22.9215256 52.3388791,26.0563388 56.7959429,26.4698316 C61.2463145,26.925346 68.6279082,23.5232752 71.0237473,20.0875872 C73.4932016,16.6619843 71.085651,15.1576101 67.3781234,15.4349528 L67.3764503,15.4349528 Z M41.1259504,4.87239712 C38.5845541,4.89424836 34.5976234,5.64055242 32.1432268,6.71462516 C29.6871571,7.76516579 30.6458274,9.46788204 34.3065089,10.0360144 C37.9671905,10.589019 41.974198,9.23592267 43.3109825,7.60548362 C44.6561324,5.9683211 43.6773853,4.87743971 41.1259504,4.87239712 L41.1259504,4.87239712 Z M17.4954813,15.9829148 C12.563265,14.100346 5.60830469,12.1253296 1.98610379,12.4833539 C-1.6076549,12.7875904 -0.252466567,17.2536488 5.47445893,20.9465092 C11.2415382,24.6242418 18.5863243,24.546922 21.3803546,22.455926 C24.1844232,20.3397169 22.4026016,17.9377608 17.4954813,15.9829148 Z M56.2672522,7.0104574 C52.8173777,7.79542136 48.365333,10.3217615 46.25057,13.4817877 C44.090634,16.5947497 47.4551819,19.8001592 53.5267602,18.7714699 C59.5799347,17.6772267 63.4648079,13.1523381 63.0114054,10.3385701 C62.5814259,7.4575675 59.7522612,6.3095367 56.2672522,7.0104574 L56.2672522,7.0104574 Z" id="Fill-4" fill="#FFFFFF"></path>
                <path d="M134.292471,18.7346589 C133.762107,18.7346589 133.449243,19.0977258 133.449243,19.5818149 C133.449243,19.9347965 133.676781,20.2608843 134.111779,20.7701864 C134.243952,20.6844623 134.521682,20.4911628 134.521682,20.4911628 C134.859643,20.2608843 135.149084,19.9953077 135.149084,19.5952618 C135.149084,19.1094918 134.799412,18.7346589 134.292471,18.7346589 L134.292471,18.7346589 Z M133.762107,22.1989217 C133.134705,22.6359466 132.604342,23.0343116 132.604342,23.8344033 C132.604342,24.6950062 133.266878,25.3001176 134.160299,25.3001176 C134.739181,25.3001176 135.232738,25.1437972 135.799909,24.6344951 L133.762107,22.1989217 Z M137.235405,26.35402 L136.536061,25.506864 C136.161293,25.8329518 135.461949,26.4262972 134.160299,26.4262972 C132.375131,26.4262972 131.386345,25.4211399 131.386345,23.8596163 C131.386345,22.6594787 132.242958,21.9820901 133.086186,21.4240429 C132.70138,20.975252 132.194439,20.3701406 132.194439,19.5700488 C132.194439,18.4674014 133.014244,17.6572244 134.292471,17.6572244 C135.510468,17.6572244 136.330273,18.4808483 136.330273,19.5818149 C136.330273,20.2608843 135.957178,20.7332074 135.413429,21.1097212 C135.413429,21.1097212 134.991815,21.4005108 134.787701,21.5450652 L136.596291,23.7133811 C136.909156,23.2645901 137.041329,22.7687349 137.05304,21.9820901 L138.235902,21.9820901 C138.199094,23.0830567 137.958172,23.9554256 137.379289,24.6344951 L138.814785,26.35402 L137.235405,26.35402 Z" id="Fill-7" fill="#F78629"></path>
            </g>
        </g>
    </g>
</svg>