<?xml version="1.0" encoding="UTF-8"?>
<svg width="63px" height="76px" viewBox="0 0 63 76" version="1.1" xmlns="http://www.w3.org/2000/svg" xmlns:xlink="http://www.w3.org/1999/xlink">
    <!-- Generator: Sketch 47.1 (45422) - http://www.bohemiancoding.com/sketch -->
    <title>microscope</title>
    <desc>Created with Sketch.</desc>
    <defs></defs>
    <g id="Page-1" stroke="none" stroke-width="1" fill="none" fill-rule="evenodd">
        <g id="Assets" transform="translate(-145.000000, -559.000000)" fill-rule="nonzero" fill="#C8C8C8">
            <g id="microscope" transform="translate(145.000000, 559.000000)">
                <path d="M0,45.4520657 C0.012739131,57.2373932 9.60191969,66.7928842 21.4458216,66.822542 L24.2908332,66.822542 L24.2908332,72.153622 L17.093263,72.153622 C16.0258333,72.153622 15.1605105,73.014663 15.1605105,74.076811 C15.1605105,75.138959 16.0258333,76 17.093263,76 L53.6068229,76 C54.6742526,76 55.5395754,75.138959 55.5395754,74.076811 C55.5395754,73.014663 54.6742526,72.153622 53.6068229,72.153622 L46.3783286,72.153622 L46.3783286,57.5373855 C46.3783286,57.4604579 46.3783286,57.3912231 46.3783286,57.3219883 L61.0672475,57.3219883 C62.1346772,57.3219883 63,56.4609473 63,55.3987993 C63,54.3366513 62.1346772,53.4756103 61.0672475,53.4756103 L45.6052276,53.4756103 C43.9402805,49.3028998 39.8851266,46.563475 35.373236,46.563475 C30.8613453,46.563475 26.8061915,49.3028998 25.1412443,53.4756103 L21.4458216,53.4756103 C17.6981705,53.4697774 14.4535999,50.8836193 13.6298426,47.2457081 C12.8060853,43.6077969 14.6225182,39.886954 18.0055221,38.2824171 C22.147574,41.1094259 27.7683488,40.3546087 31.0090809,36.5361615 L34.1014848,39.6132639 C36.0811018,41.5872874 39.2477822,41.7308186 41.3995582,39.9440524 L44.7780096,43.3057868 C46.0602214,44.5772469 48.1344037,44.5772469 49.4166155,43.3057868 L52.6636397,40.0748292 C53.9371948,38.7972266 53.9371948,36.7367782 52.6636397,35.4591756 L49.3547675,32.0820557 C51.1504188,29.9409269 51.0061738,26.7899156 49.022334,24.820094 L27.6306295,3.56500902 C27.2680287,3.20328909 26.7756852,3 26.2622408,3 C25.7487963,3 25.2564529,3.20328909 24.893852,3.56500902 L12.8025525,15.6349433 C12.4390338,15.9957499 12.2347338,16.4856572 12.2347338,16.9965611 C12.2347338,17.5074649 12.4390338,17.9973723 12.8025525,18.3581789 L17.2246901,22.7661281 C16.4598475,23.4089353 15.797716,24.1637655 15.2610136,25.0047201 C6.20971056,27.7410041 0.0163866694,36.039079 0,45.4520657 Z M35.3616395,50.3754296 C37.2650414,50.3794982 39.0886306,51.1368421 40.4301841,52.4804163 C41.7717376,53.8239906 42.5210412,55.6434151 42.5128237,57.5373855 L42.5128237,72.153622 L28.1872622,72.153622 L28.1872622,57.5373855 C28.1790306,55.6394179 28.9315126,53.8164874 30.2780863,52.4722451 C31.62466,51.1280028 33.4542172,50.3733645 35.3616395,50.3754296 L35.3616395,50.3754296 Z M23.5641183,36.1053671 C20.2807045,36.1053671 17.6189717,33.4568048 17.6189717,30.1896377 C17.6189717,26.9224706 20.2807045,24.2739083 23.5641183,24.2739083 C26.8475321,24.2739083 29.5092649,26.9224706 29.5092649,30.1896377 C29.5050058,33.4550478 26.8457663,36.1011291 23.5641183,36.1053671 Z M47.1668916,40.1748351 L44.2059148,37.2285095 L46.633452,34.8129841 L49.5944288,37.7593097 L47.1668916,40.1748351 Z M16.8999877,16.9965611 L26.2931648,7.64986248 L46.2932875,27.5356369 C46.5860031,27.8245254 46.7506515,28.2177727 46.7506515,28.6280082 C46.7506515,29.0382437 46.5860031,29.4314911 46.2932875,29.7203796 L39.0957173,36.8823355 C38.4807905,37.4645431 37.5150373,37.4645431 36.9001104,36.8823355 L32.9650264,32.9744154 C33.997144,29.5417227 33.0532654,25.8223115 30.5070792,23.2887241 C27.960893,20.7551367 24.2229863,19.8159286 20.7732237,20.8429391 L16.8999877,16.9965611 Z M13.8075838,29.6973013 C13.8075838,29.866542 13.8075838,30.0280898 13.8075838,30.1973305 C13.8196214,32.0339863 14.3558414,33.8294383 15.3537857,35.3745553 C10.8216522,38.1408472 8.68599876,43.5648278 10.1233791,48.6583699 C11.5607595,53.7519119 16.2217627,57.276833 21.5385937,57.2912173 L24.3990674,57.2912173 C24.3990674,57.3604521 24.3990674,57.4373796 24.3990674,57.5066145 L24.3990674,62.9838568 L21.4458216,62.9838568 C13.2339314,63.0002797 6.10054987,57.3671565 4.25145878,49.4057293 C2.40236769,41.4443021 6.32840479,33.2679168 13.7148116,29.6973013 L13.8075838,29.6973013 Z" id="Shape"></path>
                <path d="M13.4640203,10.3410894 L20.4173396,3.39836718 C20.9198541,2.89546907 21.1161084,2.16247909 20.9321753,1.47550748 C20.7482422,0.78853587 20.2120657,0.251949962 19.5256181,0.0678764806 C18.8391706,-0.116197 18.1067398,0.080207088 17.6042253,0.583105224 L10.6667993,7.52582749 C10.116517,8.01537718 9.88190315,8.76934964 10.0571598,9.48501038 C10.2324164,10.2006711 10.7887991,10.7606422 11.5029094,10.9400846 C12.2170198,11.1195269 12.9717342,10.8890094 13.4640203,10.3410894 Z" id="Shape"></path>
            </g>
        </g>
    </g>
</svg>