<svg xmlns="http://www.w3.org/2000/svg" height="100" width="100" id="HkU-S7N2EgM">
    <style>
        #H1Dbr7N3NeM{stroke-width: 0;fill: white;}

	@keyframes H1Dbr7N3NeMAnimation {
		0% {
			transform: scale(1, 1) rotate(0deg) skewX(0);
		}
		10% {
			transform: scale(1, 0.9);
		}
        12% {
            transform:  skewX(30);
        }
		20% {
			transform: scale(0.84, 1);
		}
		32% {
			transform: scale(1.05, 0.84);
		}
		40.67% {
			transform: scale(0.9, 1.1);
		}
		55.33% {
			transform: scale(1.02, 0.89);
		}
        60% {
            transform:  skewX(30);
        }
		67.33% {
			transform: scale(0.94, 1.1);
		}
		80% {
			transform: scale(1.08, 0.98);
		}
		90.67% {
			transform: scale(0.89, 0.99);
		}
        98% {
            transform:  skewX(0);
        }
		100% {
			transform: scale(1, 1) rotate(0deg);
		}
		51.33% {
			transform: rotate(-45 100 100);
		}
	}

	#H1Dbr7N3NeM {
		transform-origin: 50% 50% !important;
		animation: H1Dbr7N3NeMAnimation 10s infinite linear;
	}
        #H2Dbr7N3NeM{stroke-width: 0;fill: rgba(0,0,0,0.1);}

	@keyframes H2Dbr7N3NeMAnimation {
		0% {
			transform: scale(1, 1) rotate(0deg) skewX(0);
		}
		10% {
			transform: scale(1, 0.9);
		}
        12% {
            transform:  skewX(30);
        }
		20% {
			transform: scale(0.84, 1);
		}
		32% {
			transform: scale(1.05, 0.84);
		}
		40.67% {
			transform: scale(0.9, 1.1);
		}
		55.33% {
			transform: scale(1.02, 0.89);
		}
        60% {
            transform:  skewX(30);
        }
		67.33% {
			transform: scale(0.94, 1.1);
		}
		80% {
			transform: scale(1.08, 0.98);
		}
		90.67% {
			transform: scale(0.89, 0.99);
		}
        98% {
            transform:  skewX(0);
        }
		100% {
			transform: scale(1, 1) rotate(0deg);
		}
		51.33% {
			transform: rotate(-45 100 100);
		}
	}
        #H2Dbr7N3NeM {
		transform-origin: 50% 50% !important;
		animation: H1Dbr7N3NeMAnimation 10s infinite linear;
        filter:url(#blur-effect-1);
	}
    
          
    </style>
    <svg xmlns="http://www.w3.org/2000/svg" height="100" width="100" id="HkU-S7N2EgM">
        <circle cx="50" cy="50" r="40" id="H2Dbr7N3NeM"/>
        <circle cx="50" cy="50" r="40" id="H1Dbr7N3NeM"/>
        
        
        <filter id="blur-effect-1">
            <feGaussianBlur stdDeviation="2" />
        </filter>
        
  Sorry, your browser does not support inline SVG.  

    </svg>
</svg>