{

	"level":"beginner",
	"embryo": {
		"image": "http://www.brusselsivf.be/media/fotoboek/14/images/embryo-8-cellig-dag3.jpg",
		"phase_of_development": "Hblast",
		"cluster": "1ab",
		"activity_data":  [0, 0.051887890715, 0.07176577535, 0.108284015871, 0.073569708007, 0.072099588399, 0.062539419542, 0.052829635091, 0.079834944635, 0.248297137722, 0.275964710236, 0.277647749853, 0.405436272784, 0.210641539743, 0.208590728393, 0.17132634695, 0.238944426198, 0.253199369645, 0.274299052034, 0.161722581019, 0.102507080111, 0.076601168889, 0.084753798741, 0.053977243981, 0.042571769014, 0.041729890929, 0.040973926746, 0.063183768179, 0.047488579872, 0.046328244889, 0.056205439683, 0.056812074149, 0.034581189693, 0.042179552596, 0.064306200686, 0.190011229299, 0.115091057279, 0.158125306839, 0.186847038501, 0.090291830037, 0.076649296883, 0.076256458611, 0.042566601722, 0.037380815719, 0.036777451524, 0.116713805724, 0.193941775928, 0.160456177111, 0.163511214171, 0.400209337783, 0.155361604298, 0.218377243842, 0.160068141242, 0.208538536463, 0.183549963254, 0.201181774898, 0.233792785672, 0.176704613544, 0.147952897459, 0.147028166216, 0.1784498529, 0.188847881714, 0.191531523472, 0.132615340831, 0.184085853382, 0.150156509816, 0.094591132343, 0.090568835881, 0.196442804424, 0.092940534891, 0.151128765711, 0.375840487718, 0.241896573886, 0.182203960272, 0.121088951163, 0.105646917487, 0.096560201162, 0.147359866832, 0.257428008133, 0.219074137999, 0.327781848899, 0.179079366651, 0.084284476833, 0.075966450422, 0.110908457304, 0.124290792317, 0.112655299922, 0.139570155332, 0.190196666722, 0.124652945736, 0.063951643172, 0.120132131521, 0.073237680175, 0.043787092421, 0.077794239096, 0.063756294359, 0.082683097115, 0.070221914851, 0.068312567349, 0.121129625082],
		"expansion_data": [11111, 11059, 11126.5, 10901.5, 10895, 10891.5, 10931, 10909.5, 10764, 10310, 11023.5, 10982, 11347.5, 11048.5, 11390.5, 11121.5, 10856, 10623.5, 10336, 10637, 10669, 10709.5, 10646.5, 10570.5, 10613.5, 10696, 10716, 10700.5, 10714, 10751.5, 10720, 10683, 10630.5, 10647, 10641.5, 11092.5, 10967, 10792.5, 10533, 10613, 10424, 10621.5, 10683.5, 10639.5, 10565, 10318, 10280, 10205.5, 10364, 10467.5, 10243, 10150.5, 10307, 10462, 10681.5, 10972, 10661, 10545.5, 10664.5, 10812.5, 10690.5, 10794.5, 10479.5, 10539, 10733, 11003.5, 11120.5, 11238.5, 10775, 10550, 10431, 10392, 10435, 10454.5, 10453.5, 10407.5, 10357.5, 10284.5, 10468.5, 10111, 10122.5, 10206.5, 10341, 10545.5, 10744.5, 10762, 10783, 10732.5, 10708.5, 10568, 10615, 10702, 10485.5, 10459, 10412, 10462.5, 10469.5, 10551.5, 10460, 10503.5],
		"events": {
			"18": [{"type": "division", "cell_count": 2}],
			"28": [{"type": "division", "cell_count": 3}],
			"42": [{"type": "division", "cell_count": 4}],
			"43": [{"type": "division", "cell_count": 5}],
			"73": [{"type": "division", "cell_count": 6}],
			"84": [{"type": "division", "cell_count": 7}],
			"85": [{"type": "division", "cell_count": 8}],
			"86": [{"type": "division", "cell_count": 9}],
			"90": [{"type": "expansion"}],
			"98": [{"type": "collapse", "start": 95, "end": 99}]
		},
		"image_count": 100
	},
	"options": [

		{
			"value":"1",
			"name": "Hatching blastocyst",
			"shortName": "Hblast",
			"description": "Hatching blastocyst with early oneset of expansion. This blastocyst has the best implantation chance.",
			"embryo": {
				"image": "http://www.brusselsivf.be/media/fotoboek/14/images/embryo-8-cellig-dag3.jpg",
				"phase_of_development": "Hblast",
				"cluster": "1ab",
				"activity_data":  [0, 0.051887890715, 0.07176577535, 0.108284015871, 0.073569708007, 0.072099588399, 0.062539419542, 0.052829635091, 0.079834944635, 0.248297137722, 0.275964710236, 0.277647749853, 0.405436272784, 0.210641539743, 0.208590728393, 0.17132634695, 0.238944426198, 0.253199369645, 0.274299052034, 0.161722581019, 0.102507080111, 0.076601168889, 0.084753798741, 0.053977243981, 0.042571769014, 0.041729890929, 0.040973926746, 0.063183768179, 0.047488579872, 0.046328244889, 0.056205439683, 0.056812074149, 0.034581189693, 0.042179552596, 0.064306200686, 0.190011229299, 0.115091057279, 0.158125306839, 0.186847038501, 0.090291830037, 0.076649296883, 0.076256458611, 0.042566601722, 0.037380815719, 0.036777451524, 0.116713805724, 0.193941775928, 0.160456177111, 0.163511214171, 0.400209337783, 0.155361604298, 0.218377243842, 0.160068141242, 0.208538536463, 0.183549963254, 0.201181774898, 0.233792785672, 0.176704613544, 0.147952897459, 0.147028166216, 0.1784498529, 0.188847881714, 0.191531523472, 0.132615340831, 0.184085853382, 0.150156509816, 0.094591132343, 0.090568835881, 0.196442804424, 0.092940534891, 0.151128765711, 0.375840487718, 0.241896573886, 0.182203960272, 0.121088951163, 0.105646917487, 0.096560201162, 0.147359866832, 0.257428008133, 0.219074137999, 0.327781848899, 0.179079366651, 0.084284476833, 0.075966450422, 0.110908457304, 0.124290792317, 0.112655299922, 0.139570155332, 0.190196666722, 0.124652945736, 0.063951643172, 0.120132131521, 0.073237680175, 0.043787092421, 0.077794239096, 0.063756294359, 0.082683097115, 0.070221914851, 0.068312567349, 0.121129625082],
				"expansion_data": [11111, 11059, 11126.5, 10901.5, 10895, 10891.5, 10931, 10909.5, 10764, 10310, 11023.5, 10982, 11347.5, 11048.5, 11390.5, 11121.5, 10856, 10623.5, 10336, 10637, 10669, 10709.5, 10646.5, 10570.5, 10613.5, 10696, 10716, 10700.5, 10714, 10751.5, 10720, 10683, 10630.5, 10647, 10641.5, 11092.5, 10967, 10792.5, 10533, 10613, 10424, 10621.5, 10683.5, 10639.5, 10565, 10318, 10280, 10205.5, 10364, 10467.5, 10243, 10150.5, 10307, 10462, 10681.5, 10972, 10661, 10545.5, 10664.5, 10812.5, 10690.5, 10794.5, 10479.5, 10539, 10733, 11003.5, 11120.5, 11238.5, 10775, 10550, 10431, 10392, 10435, 10454.5, 10453.5, 10407.5, 10357.5, 10284.5, 10468.5, 10111, 10122.5, 10206.5, 10341, 10545.5, 10744.5, 10762, 10783, 10732.5, 10708.5, 10568, 10615, 10702, 10485.5, 10459, 10412, 10462.5, 10469.5, 10551.5, 10460, 10503.5],
				"events": {
					"18": [{"type": "division", "cell_count": 2}],
					"28": [{"type": "division", "cell_count": 3}],
					"42": [{"type": "division", "cell_count": 4}],
					"43": [{"type": "division", "cell_count": 5}],
					"73": [{"type": "division", "cell_count": 6}],
					"84": [{"type": "division", "cell_count": 7}],
					"85": [{"type": "division", "cell_count": 8}],
					"86": [{"type": "division", "cell_count": 9}],
					"90": [{"type": "expansion"}],
					"98": [{"type": "collapse", "start": 95, "end": 99}]
				},
				"image_count": 100
			}

		},
		{
			"value":"2",
			"name": "Hatching blastocyst",
			"shortName": "Hblast",
			"description": "Hatching blastocyst with early oneset of expansion. This blastocyst has the best implantation chance.",
			"embryo": {
				"image": "http://www.brusselsivf.be/media/fotoboek/14/images/embryo-8-cellig-dag3.jpg",
				"phase_of_development": "Hblast",
				"cluster": "2ab",
				"activity_data":  [0, 0.051887890715, 0.07176577535, 0.108284015871, 0.073569708007, 0.072099588399, 0.062539419542, 0.052829635091, 0.079834944635, 0.248297137722, 0.275964710236, 0.277647749853, 0.405436272784, 0.210641539743, 0.208590728393, 0.17132634695, 0.238944426198, 0.253199369645, 0.274299052034, 0.161722581019, 0.102507080111, 0.076601168889, 0.084753798741, 0.053977243981, 0.042571769014, 0.041729890929, 0.040973926746, 0.063183768179, 0.047488579872, 0.046328244889, 0.056205439683, 0.056812074149, 0.034581189693, 0.042179552596, 0.064306200686, 0.190011229299, 0.115091057279, 0.158125306839, 0.186847038501, 0.090291830037, 0.076649296883, 0.076256458611, 0.042566601722, 0.037380815719, 0.036777451524, 0.116713805724, 0.193941775928, 0.160456177111, 0.163511214171, 0.400209337783, 0.155361604298, 0.218377243842, 0.160068141242, 0.208538536463, 0.183549963254, 0.201181774898, 0.233792785672, 0.176704613544, 0.147952897459, 0.147028166216, 0.1784498529, 0.188847881714, 0.191531523472, 0.132615340831, 0.184085853382, 0.150156509816, 0.094591132343, 0.090568835881, 0.196442804424, 0.092940534891, 0.151128765711, 0.375840487718, 0.241896573886, 0.182203960272, 0.121088951163, 0.105646917487, 0.096560201162, 0.147359866832, 0.257428008133, 0.219074137999, 0.327781848899, 0.179079366651, 0.084284476833, 0.075966450422, 0.110908457304, 0.124290792317, 0.112655299922, 0.139570155332, 0.190196666722, 0.124652945736, 0.063951643172, 0.120132131521, 0.073237680175, 0.043787092421, 0.077794239096, 0.063756294359, 0.082683097115, 0.070221914851, 0.068312567349, 0.121129625082],
				"expansion_data": [11111, 11059, 11126.5, 10901.5, 10895, 10891.5, 10931, 10909.5, 10764, 10310, 11023.5, 10982, 11347.5, 11048.5, 11390.5, 11121.5, 10856, 10623.5, 10336, 10637, 10669, 10709.5, 10646.5, 10570.5, 10613.5, 10696, 10716, 10700.5, 10714, 10751.5, 10720, 10683, 10630.5, 10647, 10641.5, 11092.5, 10967, 10792.5, 10533, 10613, 10424, 10621.5, 10683.5, 10639.5, 10565, 10318, 10280, 10205.5, 10364, 10467.5, 10243, 10150.5, 10307, 10462, 10681.5, 10972, 10661, 10545.5, 10664.5, 10812.5, 10690.5, 10794.5, 10479.5, 10539, 10733, 11003.5, 11120.5, 11238.5, 10775, 10550, 10431, 10392, 10435, 10454.5, 10453.5, 10407.5, 10357.5, 10284.5, 10468.5, 10111, 10122.5, 10206.5, 10341, 10545.5, 10744.5, 10762, 10783, 10732.5, 10708.5, 10568, 10615, 10702, 10485.5, 10459, 10412, 10462.5, 10469.5, 10551.5, 10460, 10503.5],
				"events": {
					"18": [{"type": "division", "cell_count": 2}],
					"28": [{"type": "division", "cell_count": 3}],
					"42": [{"type": "division", "cell_count": 4}],
					"43": [{"type": "division", "cell_count": 5}],
					"73": [{"type": "division", "cell_count": 6}],
					"84": [{"type": "division", "cell_count": 7}],
					"85": [{"type": "division", "cell_count": 8}],
					"86": [{"type": "division", "cell_count": 9}],
					"90": [{"type": "expansion"}],
					"98": [{"type": "collapse", "start": 95, "end": 99}]
				},
				"image_count": 100
			}
		},
		{
			"value":"3",
			"name": "Hatching blastocyst",
			"shortName": "Hblast",
			"description": "Hatching blastocyst with early oneset of expansion. This blastocyst has the best implantation chance.",
			"embryo": {
				"image": "http://www.brusselsivf.be/media/fotoboek/14/images/embryo-8-cellig-dag3.jpg",
				"phase_of_development": "Hblast",
				"cluster": "3ab",
				"activity_data":  [0, 0.051887890715, 0.07176577535, 0.108284015871, 0.073569708007, 0.072099588399, 0.062539419542, 0.052829635091, 0.079834944635, 0.248297137722, 0.275964710236, 0.277647749853, 0.405436272784, 0.210641539743, 0.208590728393, 0.17132634695, 0.238944426198, 0.253199369645, 0.274299052034, 0.161722581019, 0.102507080111, 0.076601168889, 0.084753798741, 0.053977243981, 0.042571769014, 0.041729890929, 0.040973926746, 0.063183768179, 0.047488579872, 0.046328244889, 0.056205439683, 0.056812074149, 0.034581189693, 0.042179552596, 0.064306200686, 0.190011229299, 0.115091057279, 0.158125306839, 0.186847038501, 0.090291830037, 0.076649296883, 0.076256458611, 0.042566601722, 0.037380815719, 0.036777451524, 0.116713805724, 0.193941775928, 0.160456177111, 0.163511214171, 0.400209337783, 0.155361604298, 0.218377243842, 0.160068141242, 0.208538536463, 0.183549963254, 0.201181774898, 0.233792785672, 0.176704613544, 0.147952897459, 0.147028166216, 0.1784498529, 0.188847881714, 0.191531523472, 0.132615340831, 0.184085853382, 0.150156509816, 0.094591132343, 0.090568835881, 0.196442804424, 0.092940534891, 0.151128765711, 0.375840487718, 0.241896573886, 0.182203960272, 0.121088951163, 0.105646917487, 0.096560201162, 0.147359866832, 0.257428008133, 0.219074137999, 0.327781848899, 0.179079366651, 0.084284476833, 0.075966450422, 0.110908457304, 0.124290792317, 0.112655299922, 0.139570155332, 0.190196666722, 0.124652945736, 0.063951643172, 0.120132131521, 0.073237680175, 0.043787092421, 0.077794239096, 0.063756294359, 0.082683097115, 0.070221914851, 0.068312567349, 0.121129625082],
				"expansion_data": [11111, 11059, 11126.5, 10901.5, 10895, 10891.5, 10931, 10909.5, 10764, 10310, 11023.5, 10982, 11347.5, 11048.5, 11390.5, 11121.5, 10856, 10623.5, 10336, 10637, 10669, 10709.5, 10646.5, 10570.5, 10613.5, 10696, 10716, 10700.5, 10714, 10751.5, 10720, 10683, 10630.5, 10647, 10641.5, 11092.5, 10967, 10792.5, 10533, 10613, 10424, 10621.5, 10683.5, 10639.5, 10565, 10318, 10280, 10205.5, 10364, 10467.5, 10243, 10150.5, 10307, 10462, 10681.5, 10972, 10661, 10545.5, 10664.5, 10812.5, 10690.5, 10794.5, 10479.5, 10539, 10733, 11003.5, 11120.5, 11238.5, 10775, 10550, 10431, 10392, 10435, 10454.5, 10453.5, 10407.5, 10357.5, 10284.5, 10468.5, 10111, 10122.5, 10206.5, 10341, 10545.5, 10744.5, 10762, 10783, 10732.5, 10708.5, 10568, 10615, 10702, 10485.5, 10459, 10412, 10462.5, 10469.5, 10551.5, 10460, 10503.5],
				"events": {
					"18": [{"type": "division", "cell_count": 2}],
					"28": [{"type": "division", "cell_count": 3}],
					"42": [{"type": "division", "cell_count": 4}],
					"43": [{"type": "division", "cell_count": 5}],
					"73": [{"type": "division", "cell_count": 6}],
					"84": [{"type": "division", "cell_count": 7}],
					"85": [{"type": "division", "cell_count": 8}],
					"86": [{"type": "division", "cell_count": 9}],
					"90": [{"type": "expansion"}],
					"98": [{"type": "collapse", "start": 95, "end": 99}]
				},
				"image_count": 100
			}

		},
		{
			"value":"4",
			"name": "Hatching blastocyst",
			"shortName": "Hblast",
			"description": "Hatching blastocyst with early oneset of expansion. This blastocyst has the best implantation chance.",
			"embryo": {
				"image": "http://www.brusselsivf.be/media/fotoboek/14/images/embryo-8-cellig-dag3.jpg",
				"phase_of_development": "Hblast",
				"cluster": "4ab",
				"activity_data":  [0, 0.051887890715, 0.07176577535, 0.108284015871, 0.073569708007, 0.072099588399, 0.062539419542, 0.052829635091, 0.079834944635, 0.248297137722, 0.275964710236, 0.277647749853, 0.405436272784, 0.210641539743, 0.208590728393, 0.17132634695, 0.238944426198, 0.253199369645, 0.274299052034, 0.161722581019, 0.102507080111, 0.076601168889, 0.084753798741, 0.053977243981, 0.042571769014, 0.041729890929, 0.040973926746, 0.063183768179, 0.047488579872, 0.046328244889, 0.056205439683, 0.056812074149, 0.034581189693, 0.042179552596, 0.064306200686, 0.190011229299, 0.115091057279, 0.158125306839, 0.186847038501, 0.090291830037, 0.076649296883, 0.076256458611, 0.042566601722, 0.037380815719, 0.036777451524, 0.116713805724, 0.193941775928, 0.160456177111, 0.163511214171, 0.400209337783, 0.155361604298, 0.218377243842, 0.160068141242, 0.208538536463, 0.183549963254, 0.201181774898, 0.233792785672, 0.176704613544, 0.147952897459, 0.147028166216, 0.1784498529, 0.188847881714, 0.191531523472, 0.132615340831, 0.184085853382, 0.150156509816, 0.094591132343, 0.090568835881, 0.196442804424, 0.092940534891, 0.151128765711, 0.375840487718, 0.241896573886, 0.182203960272, 0.121088951163, 0.105646917487, 0.096560201162, 0.147359866832, 0.257428008133, 0.219074137999, 0.327781848899, 0.179079366651, 0.084284476833, 0.075966450422, 0.110908457304, 0.124290792317, 0.112655299922, 0.139570155332, 0.190196666722, 0.124652945736, 0.063951643172, 0.120132131521, 0.073237680175, 0.043787092421, 0.077794239096, 0.063756294359, 0.082683097115, 0.070221914851, 0.068312567349, 0.121129625082],
				"expansion_data": [11111, 11059, 11126.5, 10901.5, 10895, 10891.5, 10931, 10909.5, 10764, 10310, 11023.5, 10982, 11347.5, 11048.5, 11390.5, 11121.5, 10856, 10623.5, 10336, 10637, 10669, 10709.5, 10646.5, 10570.5, 10613.5, 10696, 10716, 10700.5, 10714, 10751.5, 10720, 10683, 10630.5, 10647, 10641.5, 11092.5, 10967, 10792.5, 10533, 10613, 10424, 10621.5, 10683.5, 10639.5, 10565, 10318, 10280, 10205.5, 10364, 10467.5, 10243, 10150.5, 10307, 10462, 10681.5, 10972, 10661, 10545.5, 10664.5, 10812.5, 10690.5, 10794.5, 10479.5, 10539, 10733, 11003.5, 11120.5, 11238.5, 10775, 10550, 10431, 10392, 10435, 10454.5, 10453.5, 10407.5, 10357.5, 10284.5, 10468.5, 10111, 10122.5, 10206.5, 10341, 10545.5, 10744.5, 10762, 10783, 10732.5, 10708.5, 10568, 10615, 10702, 10485.5, 10459, 10412, 10462.5, 10469.5, 10551.5, 10460, 10503.5],
				"events": {
					"18": [{"type": "division", "cell_count": 2}],
					"28": [{"type": "division", "cell_count": 3}],
					"42": [{"type": "division", "cell_count": 4}],
					"43": [{"type": "division", "cell_count": 5}],
					"73": [{"type": "division", "cell_count": 6}],
					"84": [{"type": "division", "cell_count": 7}],
					"85": [{"type": "division", "cell_count": 8}],
					"86": [{"type": "division", "cell_count": 9}],
					"90": [{"type": "expansion"}],
					"98": [{"type": "collapse", "start": 95, "end": 99}]
				},
				"image_count": 100
			}

		}

	]

}
