{
		"category": "Hblast",
		"cluster": "1aa",
		"values": [
						{
							"image": "http://www.spbivf.com/uploads/ckeditor/files/embryo/header-embryo-donation.jpg",
							"phase_of_development": "Hblast",
							"cluster": "1aa",
							"activity_data": [0, 13.952141627669334, 14.250443503260612, 19.030465185642242],
							"expansion_data": [36.663333333333334, 36.48, 36.5, 36.556666666666665, 36.35666666666667],
							"events": {
								"0": {
									"type": "up"
								},
								"3": {
									"type": "down"
								}
							}
						},
						{
							"image": "http://www.spbivf.com/uploads/ckeditor/files/embryo/header-embryo-donation.jpg",
							"phase_of_development": "Hblast",
							"cluster": "1aa",
							"activity_data": [0, 13.952141627669334, 14.250443503260612, 19.030465185642242],
							"expansion_data": [36.663333333333334, 36.48, 36.5, 36.556666666666665, 36.35666666666667],
							"events": {
								"0": {
									"type": "up"
								},
								"3": {
									"type": "down"
								}
							}
						},
						{
							"image": "http://www.spbivf.com/uploads/ckeditor/files/embryo/header-embryo-donation.jpg",
							"phase_of_development": "Hblast",
							"cluster": "1aa",
							"activity_data": [0, 13.952141627669334, 14.250443503260612, 19.030465185642242],
							"expansion_data": [36.663333333333334, 36.48, 36.5, 36.556666666666665, 36.35666666666667],
							"events": {
								"0": {
									"type": "up"
								},
								"3": {
									"type": "down"
								}
							}
						}
		]
}