<?xml version="1.0" encoding="UTF-8"?>
<svg width="211px" height="196px" viewBox="0 0 211 196" version="1.1" xmlns="http://www.w3.org/2000/svg" xmlns:xlink="http://www.w3.org/1999/xlink">
    <!-- Generator: Sketch 47.1 (45422) - http://www.bohemiancoding.com/sketch -->
    <title>Path 4</title>
    <desc>Created with Sketch.</desc>
    <defs>
        <path d="M32.1328125,154.970809 C-7.92184144,130.981311 -10.8950035,84.6850199 26.6097762,29.6950476 C64.1145559,-25.2949246 99.3703267,9.64990359 146.211901,42.626849 C193.053475,75.6037944 207.974457,121.636066 167.551929,154.970809 C127.129401,188.305551 72.1874664,178.960306 32.1328125,154.970809 Z" id="path-1"></path>
        <filter x="-8.4%" y="-8.0%" width="116.8%" height="118.2%" filterUnits="objectBoundingBox" id="filter-2">
            <feOffset dx="0" dy="2" in="SourceAlpha" result="shadowOffsetOuter1"></feOffset>
            <feGaussianBlur stdDeviation="5" in="shadowOffsetOuter1" result="shadowBlurOuter1"></feGaussianBlur>
            <feColorMatrix values="0 0 0 0 0   0 0 0 0 0   0 0 0 0 0  0 0 0 0.1 0" type="matrix" in="shadowBlurOuter1"></feColorMatrix>
        </filter>
    </defs>
    <g id="Homepage" stroke="none" stroke-width="1" fill="none" fill-rule="evenodd">
        <g id="Escape-homePage-V5" transform="translate(-460.000000, -938.000000)">
            <g id="Pencil-Copy-3" transform="translate(470.000000, 945.000000)">
                <g id="Path-4">
                    <use fill="black" fill-opacity="1" filter="url(#filter-2)" xlink:href="#path-1"></use>
                    <use fill="#FFFFFF" fill-rule="evenodd" xlink:href="#path-1"></use>
                </g>
            </g>
        </g>
    </g>
</svg>