<?xml version="1.0" encoding="UTF-8"?>
<svg width="64px" height="41px" viewBox="0 0 64 41" version="1.1" xmlns="http://www.w3.org/2000/svg" xmlns:xlink="http://www.w3.org/1999/xlink">
    <!-- Generator: Sketch 47.1 (45422) - http://www.bohemiancoding.com/sketch -->
    <title>icon-compareone</title>
    <desc>Created with Sketch.</desc>
    <defs></defs>
    <g id="Guidelines" stroke="none" stroke-width="1" fill="none" fill-rule="evenodd">
        <g id="Icons" transform="translate(-651.000000, -628.000000)" fill-rule="nonzero">
            <g id="icon-compareone" transform="translate(651.000000, 628.000000)">
                <path d="M26.4251962,0.869784199 C24.5189831,0.295131754 22.5283172,0 20.5,0 C9.17816263,0 0,9.17816263 0,20.5 C0,31.8218374 9.17816263,41 20.5,41 C22.3557222,41 24.1803359,40.7529686 25.9382437,40.270425 C26.8480749,40.0206774 27.3831784,39.0806531 27.1334308,38.1708219 C26.8836832,37.2609907 25.9436589,36.7258872 25.0338277,36.9756348 C23.5699017,37.3774807 22.0494409,37.5833333 20.5,37.5833333 C11.0651355,37.5833333 3.41666667,29.9348645 3.41666667,20.5 C3.41666667,11.0651355 11.0651355,3.41666667 20.5,3.41666667 C22.1933454,3.41666667 23.8518035,3.66254603 25.4390348,4.14103732 C26.3423664,4.41335825 27.2954211,3.90182302 27.5677421,2.99849142 C27.840063,2.09515981 27.3285278,1.14210513 26.4251962,0.869784199 Z M37.9895214,31.1993678 C39.9477082,28.0047116 41,24.3276343 41,20.5 C41,16.850126 40.0433638,13.335758 38.2534046,10.2435496 C37.7807365,9.42700111 36.7356198,9.14823102 35.9190713,9.6208992 C35.1025228,10.0935674 34.8237527,11.138684 35.2964209,11.9552325 C36.7872426,14.530672 37.5833333,17.4552483 37.5833333,20.5 C37.5833333,23.6928632 36.7076668,26.7527497 35.0765369,29.4138337 C34.5834753,30.2182321 34.8358636,31.2700314 35.6402621,31.763093 C36.4446605,32.2561547 37.4964598,32.0037663 37.9895214,31.1993678 Z" id="Oval" fill="#5CC6C6"></path>
                <path d="M43.4968549,41 C42.553219,41 41.7882509,40.2311544 41.7882509,39.2827352 C41.7882509,38.3343161 42.553219,37.5654705 43.4968549,37.5654705 C45.075903,37.5654705 46.6248085,37.3506238 48.1143539,36.9314809 C49.0230483,36.6757836 49.9659289,37.2088762 50.2203366,38.1221767 C50.4747444,39.0354772 49.9443403,39.9831371 49.0356459,40.2388344 C47.2469223,40.742163 45.3880847,41 43.4968549,41 Z M56.3240683,36.4699502 C57.7830246,35.2926964 59.0770667,33.9198815 60.1675688,32.3919016 C60.7175786,31.6212438 60.5418589,30.5483711 59.7750878,29.9955733 C59.0083166,29.4427755 57.9408548,29.6193859 57.3908449,30.3900438 C56.4813313,31.6644278 55.4017492,32.8097277 54.1847351,33.7917548 C53.4489017,34.3855098 53.331297,35.4663779 53.9220575,36.2059411 C54.512818,36.9455044 55.5882349,37.0637053 56.3240683,36.4699502 Z M63.5143642,24.8704608 C63.8315847,23.4320384 63.9953093,21.9554746 63.9999992,20.4590149 C64.0001079,20.0079889 63.9895526,19.6147285 63.9671633,19.215674 C63.9140359,18.2687592 63.1072129,17.5444197 62.1650737,17.5978164 C61.2229345,17.6512131 60.5022481,18.4621258 60.5553755,19.4090406 C60.5740655,19.7421621 60.5828857,20.0707752 60.5827997,20.4532175 C60.5788916,21.6979046 60.4423927,22.9289301 60.1781272,24.1272308 C59.973925,25.0531771 60.5552285,25.9701825 61.4765049,26.1754199 C62.3977813,26.3806572 63.310162,25.7964071 63.5143642,24.8704608 Z M61.8598285,11.2166838 C61.0249333,9.53192413 59.9633212,7.9701397 58.7077713,6.57477844 C58.0748267,5.8713524 56.9943601,5.81681683 56.2944816,6.45296985 C55.5946032,7.08912287 55.5403427,8.17506626 56.1732874,8.8784923 C57.2203721,10.0421749 58.1054022,11.3441816 58.8010262,12.7479019 C59.2217278,13.5968484 60.2475102,13.9422806 61.0921751,13.5194464 C61.9368401,13.0966122 62.2805302,12.0656303 61.8598285,11.2166838 Z M51.9593876,1.61772119 C50.2593617,0.842551198 48.4574555,0.303563075 46.5953287,0.0196603743 C45.6623657,-0.122580578 44.7913223,0.522259941 44.6497987,1.45995199 C44.5082751,2.39764403 45.1498635,3.2731027 46.0828264,3.41534365 C47.6331638,3.65171045 49.1325616,4.10021196 50.5475802,4.74542563 C51.4069161,5.13726163 52.4195892,4.75474698 52.8094491,3.89105525 C53.1993089,3.02736352 52.8187234,2.00955719 51.9593876,1.61772119 Z M38.5770511,0.383134581 C36.7522546,0.834966765 35.0054248,1.53674473 33.3796702,2.46537916 C32.5592689,2.93399408 32.2721738,3.98231935 32.7384253,4.80687918 C33.2046768,5.63143901 34.247715,5.91998938 35.0681163,5.45137445 C36.4219337,4.67807114 37.8758073,4.09398652 39.394468,3.71795567 C40.3107091,3.49108807 40.8704842,2.56065041 40.6447608,1.639765 C40.4190373,0.718879579 39.4932922,0.156266979 38.5770511,0.383134581 Z M27.1528543,7.94865875 C26.0216898,9.44727938 25.0983261,11.0950925 24.4117932,12.8481155 C24.0661755,13.7306307 24.4978089,14.7276494 25.3758733,15.075019 C26.2539378,15.4223886 27.2459282,14.9885674 27.5915459,14.1060521 C28.1631903,12.6463904 28.9324377,11.2736095 29.8753021,10.0244578 C30.4456273,9.2688639 30.2985265,8.19165054 29.5467433,7.61843446 C28.7949601,7.04521837 27.7231795,7.19306482 27.1528543,7.94865875 Z M23.0005833,20.9352494 C23.0494798,22.8342062 23.3550213,24.6959637 23.9038499,26.4817937 C24.1823395,27.3879693 25.1389956,27.8956649 26.040601,27.6157637 C26.9422064,27.3358624 27.4473415,26.3743572 27.1688519,25.4681816 C26.7119285,23.9814012 26.4574431,22.4307448 26.4166475,20.8463947 C26.3922348,19.8982931 25.6077323,19.1495956 24.6644122,19.1741321 C23.7210921,19.1986686 22.9761705,19.9871477 23.0005833,20.9352494 Z M27.8494585,33.7098255 C29.0593766,35.1446061 30.4593366,36.4084954 32.0084542,37.4635186 C32.7896377,37.995542 33.8520271,37.7903478 34.3813673,37.0052045 C34.9107075,36.2200612 34.7065481,35.1522866 33.9253646,34.6202633 C32.6335083,33.7404473 31.4656199,32.6860731 30.4563103,31.4891839 C29.8461897,30.7656728 28.7680256,30.6762586 28.0481634,31.2894719 C27.3283011,31.9026851 27.239338,32.9863143 27.8494585,33.7098255 Z M39.5772026,40.6235269 C38.6507837,40.4431826 38.0452334,39.5421669 38.2246681,38.6110521 C38.4041029,37.6799373 39.3005744,37.0713175 40.2269933,37.2516618 C41.2792905,37.4565106 42.3550202,37.5621384 43.4448861,37.5653929 C44.3885179,37.5682107 45.1512098,38.3393373 45.1484061,39.2877522 C45.1456025,40.2361672 44.378365,41.0027251 43.4347333,40.9999073 C42.129891,40.9960108 40.8400085,40.869355 39.5772026,40.6235269 Z" id="Oval-Copy" fill="#B2B2B2"></path>
            </g>
        </g>
    </g>
</svg>