<?xml version="1.0" encoding="UTF-8"?>
<svg width="14px" height="73px" viewBox="0 0 14 73" version="1.1" xmlns="http://www.w3.org/2000/svg" xmlns:xlink="http://www.w3.org/1999/xlink">
    <!-- Generator: Sketch 47.1 (45422) - http://www.bohemiancoding.com/sketch -->
    <title>lineCenter</title>
    <desc>Created with Sketch.</desc>
    <defs></defs>
    <g id="Page-1" stroke="none" stroke-width="1" fill="none" fill-rule="evenodd">
        <g id="Assets" transform="translate(-359.000000, -1332.000000)">
            <g id="lineCenter" transform="translate(359.000000, 1333.000000)">
                <path d="M7,65 L7,-7.10542736e-15" id="Path-12-Copy-3" stroke="#E76120" stroke-width="2" stroke-linecap="round" stroke-dasharray="4"></path>
                <g id="icon_dash-copy-2" transform="translate(0.000000, 68.000000)">
                    <polygon id="Stroke-1" points="0 0 14 0 14 4 0 4"></polygon>
                    <rect id="reflector" fill="#E76120" x="0" y="0" width="14" height="4" rx="2"></rect>
                </g>
            </g>
        </g>
    </g>
</svg>