<?xml version="1.0" encoding="UTF-8"?>
<svg width="24px" height="24px" viewBox="0 0 24 24" version="1.1" xmlns="http://www.w3.org/2000/svg" xmlns:xlink="http://www.w3.org/1999/xlink">
    <!-- Generator: Sketch 47.1 (45422) - http://www.bohemiancoding.com/sketch -->
    <title>icon-x-hover</title>
    <desc>Created with Sketch.</desc>
    <defs></defs>
    <g id="Guidelines" stroke="none" stroke-width="1" fill="none" fill-rule="evenodd">
        <g id="Icons" transform="translate(-997.000000, -522.000000)">
            <g id="icon-x-hover" transform="translate(997.000000, 522.000000)">
                <circle id="Oval-4" fill="#E34949" cx="12" cy="12" r="12"></circle>
                <path d="M13.4142136,12 L16.7071068,8.70710678 C17.0976311,8.31658249 17.0976311,7.68341751 16.7071068,7.29289322 C16.3165825,6.90236893 15.6834175,6.90236893 15.2928932,7.29289322 L12,10.5857864 L8.70710678,7.29289322 C8.31658249,6.90236893 7.68341751,6.90236893 7.29289322,7.29289322 C6.90236893,7.68341751 6.90236893,8.31658249 7.29289322,8.70710678 L10.5857864,12 L7.29289322,15.2928932 C6.90236893,15.6834175 6.90236893,16.3165825 7.29289322,16.7071068 C7.68341751,17.0976311 8.31658249,17.0976311 8.70710678,16.7071068 L12,13.4142136 L15.2928932,16.7071068 C15.6834175,17.0976311 16.3165825,17.0976311 16.7071068,16.7071068 C17.0976311,16.3165825 17.0976311,15.6834175 16.7071068,15.2928932 L13.4142136,12 Z" id="Combined-Shape" fill="#FFFFFF" fill-rule="nonzero"></path>
            </g>
        </g>
    </g>
</svg>