<?xml version="1.0" encoding="UTF-8"?>
<svg width="23px" height="22px" viewBox="0 0 23 22" version="1.1" xmlns="http://www.w3.org/2000/svg" xmlns:xlink="http://www.w3.org/1999/xlink">
    <!-- Generator: Sketch 47.1 (45422) - http://www.bohemiancoding.com/sketch -->
    <title>icon-viewmore-hover</title>
    <desc>Created with Sketch.</desc>
    <defs></defs>
    <g id="Guidelines" stroke="none" stroke-width="1" fill="none" fill-rule="evenodd" stroke-linecap="round" stroke-linejoin="round">
        <g id="Icons" transform="translate(-997.000000, -161.000000)" stroke="#6E6E6E" stroke-width="2">
            <g id="icon-viewmore-hover" transform="translate(998.000000, 162.000000)">
                <rect id="Rectangle-path" x="0" y="0" width="9" height="8" rx="2"></rect>
                <rect id="Rectangle-path-Copy" x="12" y="0" width="9" height="8" rx="2"></rect>
                <rect id="Rectangle-path-Copy-3" x="0" y="12" width="9" height="8" rx="2"></rect>
                <rect id="Rectangle-path-Copy-2" x="12" y="12" width="9" height="8" rx="2"></rect>
            </g>
        </g>
    </g>
</svg>