<?xml version="1.0" encoding="UTF-8"?>
<svg width="24px" height="12px" viewBox="0 0 24 12" version="1.1" xmlns="http://www.w3.org/2000/svg" xmlns:xlink="http://www.w3.org/1999/xlink">
    <!-- Generator: Sketch 47.1 (45422) - http://www.bohemiancoding.com/sketch -->
    <title>icon-arrow-down</title>
    <desc>Created with Sketch.</desc>
    <defs></defs>
    <g id="Guidelines" stroke="none" stroke-width="1" fill="none" fill-rule="evenodd">
        <g id="Icons" transform="translate(-840.000000, -584.000000)" fill-rule="nonzero" fill="#5CC6C6">
            <path d="M862.327327,595.73994 C862.735985,596.111447 863.368433,596.08133 863.73994,595.672673 C864.111447,595.264015 864.08133,594.631567 863.672673,594.26006 L852.672673,584.26006 C852.291252,583.913313 851.708748,583.913313 851.327327,584.26006 L840.327327,594.26006 C839.91867,594.631567 839.888553,595.264015 840.26006,595.672673 C840.631567,596.08133 841.264015,596.111447 841.672673,595.73994 L852,586.351461 L862.327327,595.73994 Z" id="icon-arrow-down" transform="translate(852.000000, 590.000004) scale(1, -1) translate(-852.000000, -590.000004) "></path>
        </g>
    </g>
</svg>